<?xml version="1.0" encoding="UTF-8" standalone="no"?>
<!-- Created with Inkscape (http://www.inkscape.org/) -->

<svg
   xmlns:dc="http://purl.org/dc/elements/1.1/"
   xmlns:cc="http://creativecommons.org/ns#"
   xmlns:rdf="http://www.w3.org/1999/02/22-rdf-syntax-ns#"
   xmlns:svg="http://www.w3.org/2000/svg"
   xmlns="http://www.w3.org/2000/svg"
   xmlns:xlink="http://www.w3.org/1999/xlink"
   xmlns:sodipodi="http://sodipodi.sourceforge.net/DTD/sodipodi-0.dtd"
   xmlns:inkscape="http://www.inkscape.org/namespaces/inkscape"
   width="108.57976mm"
   height="72.463928mm"
   viewBox="0 0 384.73142 256.76195"
   id="svg2"
   version="1.1"
   inkscape:version="0.91 r13725"
   sodipodi:docname="190um_naive-trained.svg">
  <defs
     id="defs4"
     style="stroke-linecap:butt;stroke-linejoin:round">
    <style
       id="style6129"
       type="text/css">
*{stroke-linecap:butt;stroke-linejoin:round;}
  </style>
    <style
       id="style8919"
       type="text/css">
*{stroke-linecap:butt;stroke-linejoin:round;}
  </style>
    <style
       id="style6133"
       type="text/css">
*{stroke-linecap:butt;stroke-linejoin:round;}
  </style>
    <style
       id="style8136"
       type="text/css">
*{stroke-linecap:butt;stroke-linejoin:round;}
  </style>
    <style
       id="style11304"
       type="text/css">
*{stroke-linecap:butt;stroke-linejoin:round;}
  </style>
    <style
       id="style12925"
       type="text/css">
*{stroke-linecap:butt;stroke-linejoin:round;}
  </style>
    <style
       type="text/css"
       id="style6129-3">
*{stroke-linecap:butt;stroke-linejoin:round;}
  </style>
    <style
       type="text/css"
       id="style8919-0">
*{stroke-linecap:butt;stroke-linejoin:round;}
  </style>
  </defs>
  <sodipodi:namedview
     id="base"
     pagecolor="#ffffff"
     bordercolor="#666666"
     borderopacity="1.0"
     inkscape:pageopacity="0.0"
     inkscape:pageshadow="2"
     inkscape:zoom="0.7"
     inkscape:cx="-215.20571"
     inkscape:cy="-114.363"
     inkscape:document-units="px"
     inkscape:current-layer="layer1"
     showgrid="false"
     inkscape:window-width="1920"
     inkscape:window-height="986"
     inkscape:window-x="0"
     inkscape:window-y="1"
     inkscape:window-maximized="1"
     fit-margin-top="0"
     fit-margin-left="0"
     fit-margin-right="0"
     fit-margin-bottom="0" />
  <metadata
     id="metadata7">
    <rdf:RDF>
      <cc:Work
         rdf:about="">
        <dc:format>image/svg+xml</dc:format>
        <dc:type
           rdf:resource="http://purl.org/dc/dcmitype/StillImage" />
        <dc:title></dc:title>
      </cc:Work>
    </rdf:RDF>
  </metadata>
  <g
     inkscape:label="Layer 1"
     inkscape:groupmode="layer"
     id="layer1"
     style="stroke-linecap:butt;stroke-linejoin:round"
     transform="translate(-104.964,-93.6955)">
    <g
       id="line2d_2"
       style="stroke:#000000;stroke-width:2.87999988;stroke-linecap:butt;stroke-linejoin:round;stroke-miterlimit:4;stroke-dasharray:none;stroke-opacity:1"
       transform="matrix(1.0416667,0,0,1.0416667,53.1879,118.17925)" />
    <g
       id="line2d_14"
       style="fill:#000000;fill-opacity:1;stroke:#000000;stroke-width:2.87999988;stroke-linecap:butt;stroke-linejoin:round;stroke-miterlimit:4;stroke-dasharray:none;stroke-opacity:1"
       transform="matrix(1.0416667,0,0,1.0416667,53.1879,118.17925)" />
    <g
       id="line2d_16"
       style="stroke-linecap:butt;stroke-linejoin:round"
       transform="matrix(1.0416667,0,0,1.0416667,53.1879,118.17925)" />
    <g
       id="line2d_18"
       style="stroke:#ff0000;stroke-linecap:butt;stroke-linejoin:round;stroke-opacity:1"
       transform="matrix(1.0416667,0,0,1.0416667,53.1879,118.17925)" />
    <g
       id="line2d_20"
       style="stroke:#ff0000;stroke-linecap:butt;stroke-linejoin:round;stroke-opacity:1"
       transform="matrix(1.0416667,0,0,1.0416667,53.1879,118.17925)" />
    <g
       id="line2d_22"
       style="stroke-linecap:butt;stroke-linejoin:round"
       transform="matrix(1.0416667,0,0,1.0416667,53.1879,118.17925)" />
    <g
       id="line2d_24"
       style="stroke-linecap:butt;stroke-linejoin:round"
       transform="matrix(1.0416667,0,0,1.0416667,53.1879,118.17925)" />
    <g
       id="line2d_1"
       style="stroke:#000000;stroke-width:2.87999988;stroke-linecap:butt;stroke-linejoin:round;stroke-miterlimit:4;stroke-dasharray:none;stroke-opacity:1"
       transform="matrix(1.0416667,0,0,1.0416667,67.174037,67.784229)">
      <path
         id="path11317"
         style="fill:none;stroke:#000000;stroke-width:2.87999988;stroke-linecap:round;stroke-linejoin:round;stroke-miterlimit:4;stroke-dasharray:none;stroke-opacity:1"
         d="m 69.218182,252 0,-217.44"
         clip-path="url(#p6af363635c)"
         inkscape:connector-curvature="0" />
    </g>
    <g
       id="line2d_2-0"
       style="stroke-linecap:butt;stroke-linejoin:round"
       transform="matrix(1.0416667,0,0,1.0416667,83.174037,67.784229)" />
    <g
       id="line2d_4"
       style="stroke-linecap:butt;stroke-linejoin:round"
       transform="matrix(1.0416667,0,0,1.0416667,83.174037,67.784229)" />
    <g
       id="line2d_6"
       style="stroke-linecap:butt;stroke-linejoin:round"
       transform="matrix(1.0416667,0,0,1.0416667,83.174037,67.784229)" />
    <g
       id="line2d_8"
       style="stroke-linecap:butt;stroke-linejoin:round"
       transform="matrix(1.0416667,0,0,1.0416667,83.174037,67.784229)" />
    <g
       id="line2d_10"
       style="stroke-linecap:butt;stroke-linejoin:round"
       transform="matrix(1.0416667,0,0,1.0416667,83.174037,67.784229)" />
    <g
       id="line2d_12"
       style="stroke-linecap:butt;stroke-linejoin:round"
       transform="matrix(1.0416667,0,0,1.0416667,83.174037,67.784229)" />
    <g
       id="line2d_13"
       style="stroke:#000000;stroke-width:2.87999988;stroke-linecap:butt;stroke-linejoin:round;stroke-miterlimit:4;stroke-dasharray:none;stroke-opacity:1"
       transform="matrix(1.0416667,0,0,1.0416667,83.174037,67.784229)">
      <path
         id="path11484"
         style="fill:none;stroke:#000000;stroke-width:2.87999988;stroke-linecap:round;stroke-linejoin:round;stroke-miterlimit:4;stroke-dasharray:none;stroke-opacity:1"
         d="m 54,252 334.8,0"
         clip-path="url(#p6af363635c)"
         inkscape:connector-curvature="0" />
    </g>
    <g
       id="line2d_14-7"
       style="stroke-linecap:butt;stroke-linejoin:round"
       transform="matrix(1.0416667,0,0,1.0416667,83.174037,67.784229)" />
    <g
       id="line2d_16-9"
       style="stroke-linecap:butt;stroke-linejoin:round"
       transform="matrix(1.0416667,0,0,1.0416667,83.174037,67.784229)" />
    <g
       id="line2d_18-3"
       style="stroke-linecap:butt;stroke-linejoin:round"
       transform="matrix(1.0416667,0,0,1.0416667,83.174037,67.784229)" />
    <g
       id="line2d_20-4"
       style="stroke-linecap:butt;stroke-linejoin:round"
       transform="matrix(1.0416667,0,0,1.0416667,83.174037,67.784229)" />
    <g
       id="line2d_22-6"
       style="stroke-linecap:butt;stroke-linejoin:round"
       transform="matrix(1.0416667,0,0,1.0416667,83.174037,67.784229)" />
    <g
       id="line2d_24-6"
       style="stroke-linecap:butt;stroke-linejoin:round"
       transform="matrix(1.0416667,0,0,1.0416667,83.174037,67.784229)" />
    <g
       id="LineCollection_1"
       style="stroke:#00bfff;stroke-linecap:butt;stroke-linejoin:round;stroke-opacity:1"
       transform="matrix(1.0416667,0,0,1.0416667,83.174037,67.784229)">
      <path
         id="path11606"
         style="fill:none;stroke:#00bfff;stroke-width:1.75;stroke-linecap:butt;stroke-linejoin:round;stroke-opacity:1"
         d="m 99.654545,199.86324 0,-20.69607"
         clip-path="url(#p6af363635c)"
         inkscape:connector-curvature="0" />
      <path
         id="path11608"
         style="fill:none;stroke:#00bfff;stroke-width:1.75;stroke-linecap:butt;stroke-linejoin:round;stroke-opacity:1"
         d="m 130.09091,188.42168 0,-25.00278"
         clip-path="url(#p6af363635c)"
         inkscape:connector-curvature="0" />
      <path
         id="path11610"
         style="fill:none;stroke:#00bfff;stroke-width:1.75;stroke-linecap:butt;stroke-linejoin:round;stroke-opacity:1"
         d="m 160.52727,181.89844 0,-26.58844"
         clip-path="url(#p6af363635c)"
         inkscape:connector-curvature="0" />
      <path
         id="path11612"
         style="fill:none;stroke:#00bfff;stroke-width:1.75;stroke-linecap:butt;stroke-linejoin:round;stroke-opacity:1"
         d="m 190.96364,176.89678 0,-26.427"
         clip-path="url(#p6af363635c)"
         inkscape:connector-curvature="0" />
      <path
         id="path11614"
         style="fill:none;stroke:#00bfff;stroke-width:1.75;stroke-linecap:butt;stroke-linejoin:round;stroke-opacity:1"
         d="m 221.4,172.55642 0,-35.56674"
         clip-path="url(#p6af363635c)"
         inkscape:connector-curvature="0" />
      <path
         id="path11616"
         style="fill:none;stroke:#00bfff;stroke-width:1.75;stroke-linecap:butt;stroke-linejoin:round;stroke-opacity:1"
         d="m 251.83636,176.3802 0,-33.51266"
         clip-path="url(#p6af363635c)"
         inkscape:connector-curvature="0" />
      <path
         id="path11618"
         style="fill:none;stroke:#00bfff;stroke-width:1.75;stroke-linecap:butt;stroke-linejoin:round;stroke-opacity:1"
         d="m 282.27273,171.66171 0,-36.69034"
         clip-path="url(#p6af363635c)"
         inkscape:connector-curvature="0" />
      <path
         id="path11620"
         style="fill:none;stroke:#00bfff;stroke-width:1.75;stroke-linecap:butt;stroke-linejoin:round;stroke-opacity:1"
         d="m 312.70909,171.48966 0,-43.0063"
         clip-path="url(#p6af363635c)"
         inkscape:connector-curvature="0" />
      <path
         id="path11622"
         style="fill:none;stroke:#00bfff;stroke-width:1.75;stroke-linecap:butt;stroke-linejoin:round;stroke-opacity:1"
         d="m 343.14546,169.66388 0,-41.43428"
         clip-path="url(#p6af363635c)"
         inkscape:connector-curvature="0" />
      <path
         id="path11624"
         style="fill:none;stroke:#00bfff;stroke-width:1.75;stroke-linecap:butt;stroke-linejoin:round;stroke-opacity:1"
         d="m 373.58182,170.00214 0,-44.79473"
         clip-path="url(#p6af363635c)"
         inkscape:connector-curvature="0" />
    </g>
    <g
       id="line2d_25"
       style="stroke:#ff0000;stroke-width:2.87999988;stroke-linecap:butt;stroke-linejoin:round;stroke-miterlimit:4;stroke-dasharray:2.87999991, 8.63999972;stroke-dashoffset:0;stroke-opacity:1"
       transform="matrix(1.0416667,0,0,1.0416667,83.174037,67.784229)">
      <path
         id="path11651"
         style="fill:none;stroke:#ff0000;stroke-width:2.87999988;stroke-linecap:butt;stroke-linejoin:round;stroke-miterlimit:4;stroke-dasharray:2.87999991, 8.63999972;stroke-dashoffset:0;stroke-opacity:1"
         d="m 69.218182,217.2096 304.363638,0"
         clip-path="url(#p6af363635c)"
         inkscape:connector-curvature="0" />
    </g>
    <g
       id="line2d_26"
       style="fill:#00bfff;fill-opacity:1;stroke:#00bfff;stroke-linecap:butt;stroke-linejoin:round;stroke-opacity:1"
       transform="matrix(1.0416667,0,0,1.0416667,83.174037,67.784229)">
      <defs
         id="defs11654">
        <path
           id="m0a8a2f1921"
           d="M 0,3.5 C 0.928211,3.5 1.81853,3.131218 2.474874,2.474874 3.131218,1.81853 3.5,0.928211 3.5,0 3.5,-0.928211 3.131218,-1.81853 2.474874,-2.474874 1.81853,-3.131218 0.928211,-3.5 0,-3.5 c -0.928211,0 -1.81853,0.368782 -2.474874,1.025126 C -3.131218,-1.81853 -3.5,-0.928211 -3.5,0 c 0,0.928211 0.368782,1.81853 1.025126,2.474874 C -1.81853,3.131218 -0.928211,3.5 0,3.5 Z"
           inkscape:connector-curvature="0"
           style="stroke-linecap:butt;stroke-linejoin:round" />
      </defs>
      <g
         id="g11657"
         clip-path="url(#p6af363635c)"
         style="fill:#00bfff;fill-opacity:1;stroke:#00bfff;stroke-linecap:butt;stroke-linejoin:round;stroke-opacity:1">
        <use
           id="use11659"
           y="189.51521"
           xlink:href="#m0a8a2f1921"
           x="99.654549"
           style="fill:#00bfff;fill-opacity:1;stroke:#00bfff;stroke-linecap:butt;stroke-linejoin:round;stroke-opacity:1"
           width="100%"
           height="100%" />
        <use
           id="use11661"
           y="175.92029"
           xlink:href="#m0a8a2f1921"
           x="130.09091"
           style="fill:#00bfff;fill-opacity:1;stroke:#00bfff;stroke-linecap:butt;stroke-linejoin:round;stroke-opacity:1"
           width="100%"
           height="100%" />
        <use
           id="use11663"
           y="168.60422"
           xlink:href="#m0a8a2f1921"
           x="160.52727"
           style="fill:#00bfff;fill-opacity:1;stroke:#00bfff;stroke-linecap:butt;stroke-linejoin:round;stroke-opacity:1"
           width="100%"
           height="100%" />
        <use
           id="use11665"
           y="163.68329"
           xlink:href="#m0a8a2f1921"
           x="190.96364"
           style="fill:#00bfff;fill-opacity:1;stroke:#00bfff;stroke-linecap:butt;stroke-linejoin:round;stroke-opacity:1"
           width="100%"
           height="100%" />
        <use
           id="use11667"
           y="154.77306"
           xlink:href="#m0a8a2f1921"
           x="221.39999"
           style="fill:#00bfff;fill-opacity:1;stroke:#00bfff;stroke-linecap:butt;stroke-linejoin:round;stroke-opacity:1"
           width="100%"
           height="100%" />
        <use
           id="use11669"
           y="159.62387"
           xlink:href="#m0a8a2f1921"
           x="251.83636"
           style="fill:#00bfff;fill-opacity:1;stroke:#00bfff;stroke-linecap:butt;stroke-linejoin:round;stroke-opacity:1"
           width="100%"
           height="100%" />
        <use
           id="use11671"
           y="153.31654"
           xlink:href="#m0a8a2f1921"
           x="282.27274"
           style="fill:#00bfff;fill-opacity:1;stroke:#00bfff;stroke-linecap:butt;stroke-linejoin:round;stroke-opacity:1"
           width="100%"
           height="100%" />
        <use
           id="use11673"
           y="149.98651"
           xlink:href="#m0a8a2f1921"
           x="312.70908"
           style="fill:#00bfff;fill-opacity:1;stroke:#00bfff;stroke-linecap:butt;stroke-linejoin:round;stroke-opacity:1"
           width="100%"
           height="100%" />
        <use
           id="use11675"
           y="148.94675"
           xlink:href="#m0a8a2f1921"
           x="343.14545"
           style="fill:#00bfff;fill-opacity:1;stroke:#00bfff;stroke-linecap:butt;stroke-linejoin:round;stroke-opacity:1"
           width="100%"
           height="100%" />
        <use
           id="use11677"
           y="147.60477"
           xlink:href="#m0a8a2f1921"
           x="373.58182"
           style="fill:#00bfff;fill-opacity:1;stroke:#00bfff;stroke-linecap:butt;stroke-linejoin:round;stroke-opacity:1"
           width="100%"
           height="100%" />
      </g>
    </g>
    <g
       id="patch_3"
       style="stroke-linecap:butt;stroke-linejoin:round"
       transform="matrix(1.0416667,0,0,1.0416667,83.174037,67.784229)">
      <path
         id="path11714"
         style="fill:none;stroke-linecap:butt;stroke-linejoin:round"
         d="M 54,252 54,34.56"
         inkscape:connector-curvature="0" />
    </g>
    <g
       id="patch_4"
       style="stroke-linecap:butt;stroke-linejoin:round"
       transform="matrix(1.0416667,0,0,1.0416667,83.174037,67.784229)">
      <path
         id="path11717"
         style="fill:none;stroke-linecap:butt;stroke-linejoin:round"
         d="m 54,252 334.8,0"
         inkscape:connector-curvature="0" />
    </g>
    <g
       id="LineCollection_1-5"
       style="stroke:#000000;stroke-linecap:butt;stroke-linejoin:round;stroke-opacity:1"
       transform="matrix(1.0416667,0,0,1.0416667,90.85714,68.64792)">
      <path
         id="path13227"
         style="fill:none;stroke:#000000;stroke-width:1.75;stroke-linecap:butt;stroke-linejoin:round;stroke-opacity:1"
         d="m 99.654545,196.89318 0,-22.87447"
         clip-path="url(#pf51f9f19da)"
         inkscape:connector-curvature="0" />
      <path
         id="path13229"
         style="fill:none;stroke:#000000;stroke-width:1.75;stroke-linecap:butt;stroke-linejoin:round;stroke-opacity:1"
         d="m 130.09091,190.31591 0,-24.25294"
         clip-path="url(#pf51f9f19da)"
         inkscape:connector-curvature="0" />
      <path
         id="path13231"
         style="fill:none;stroke:#000000;stroke-width:1.75;stroke-linecap:butt;stroke-linejoin:round;stroke-opacity:1"
         d="m 160.52727,171.9958 0,-27.18327"
         clip-path="url(#pf51f9f19da)"
         inkscape:connector-curvature="0" />
      <path
         id="path13233"
         style="fill:none;stroke:#000000;stroke-width:1.75;stroke-linecap:butt;stroke-linejoin:round;stroke-opacity:1"
         d="m 190.96364,171.71191 0,-27.90487"
         clip-path="url(#pf51f9f19da)"
         inkscape:connector-curvature="0" />
      <path
         id="path13235"
         style="fill:none;stroke:#000000;stroke-width:1.75;stroke-linecap:butt;stroke-linejoin:round;stroke-opacity:1"
         d="m 221.4,164.77723 0,-24.2382"
         clip-path="url(#pf51f9f19da)"
         inkscape:connector-curvature="0" />
      <path
         id="path13237"
         style="fill:none;stroke:#000000;stroke-width:1.75;stroke-linecap:butt;stroke-linejoin:round;stroke-opacity:1"
         d="m 251.83636,161.51008 0,-23.36169"
         clip-path="url(#pf51f9f19da)"
         inkscape:connector-curvature="0" />
      <path
         id="path13239"
         style="fill:none;stroke:#000000;stroke-width:1.75;stroke-linecap:butt;stroke-linejoin:round;stroke-opacity:1"
         d="m 282.27273,156.44949 0,-29.29494"
         clip-path="url(#pf51f9f19da)"
         inkscape:connector-curvature="0" />
      <path
         id="path13241"
         style="fill:none;stroke:#000000;stroke-width:1.75;stroke-linecap:butt;stroke-linejoin:round;stroke-opacity:1"
         d="m 312.70909,154.33013 0,-30.18527"
         clip-path="url(#pf51f9f19da)"
         inkscape:connector-curvature="0" />
      <path
         id="path13243"
         style="fill:none;stroke:#000000;stroke-width:1.75;stroke-linecap:butt;stroke-linejoin:round;stroke-opacity:1"
         d="m 343.14546,149.84827 0,-25.74917"
         clip-path="url(#pf51f9f19da)"
         inkscape:connector-curvature="0" />
      <path
         id="path13245"
         style="fill:none;stroke:#000000;stroke-width:1.75;stroke-linecap:butt;stroke-linejoin:round;stroke-opacity:1"
         d="m 373.58182,143.73225 0,-29.5735"
         clip-path="url(#pf51f9f19da)"
         inkscape:connector-curvature="0" />
    </g>
    <g
       id="line2d_26-2"
       style="fill:#00bfff;fill-opacity:1;stroke:#000000;stroke-linecap:butt;stroke-linejoin:round;stroke-opacity:1"
       transform="matrix(1.0416667,0,0,1.0416667,90.85714,68.64792)">
      <defs
         id="defs13275">
        <path
           id="mf32ec6cf01"
           d="M 0,3.5 C 0.928211,3.5 1.81853,3.131218 2.474874,2.474874 3.131218,1.81853 3.5,0.928211 3.5,0 3.5,-0.928211 3.131218,-1.81853 2.474874,-2.474874 1.81853,-3.131218 0.928211,-3.5 0,-3.5 c -0.928211,0 -1.81853,0.368782 -2.474874,1.025126 C -3.131218,-1.81853 -3.5,-0.928211 -3.5,0 c 0,0.928211 0.368782,1.81853 1.025126,2.474874 C -1.81853,3.131218 -0.928211,3.5 0,3.5 Z"
           inkscape:connector-curvature="0"
           style="stroke-linecap:butt;stroke-linejoin:round" />
      </defs>
      <g
         id="g13278"
         clip-path="url(#pf51f9f19da)"
         style="fill:#00bfff;fill-opacity:1;stroke:#000000;stroke-linecap:butt;stroke-linejoin:round;stroke-opacity:1">
        <use
           id="use13280"
           y="185.45595"
           xlink:href="#mf32ec6cf01"
           x="99.654549"
           style="fill:#00bfff;fill-opacity:1;stroke:#000000;stroke-linecap:butt;stroke-linejoin:round;stroke-opacity:1"
           width="100%"
           height="100%" />
        <use
           id="use13282"
           y="178.18944"
           xlink:href="#mf32ec6cf01"
           x="130.09091"
           style="fill:#00bfff;fill-opacity:1;stroke:#000000;stroke-linecap:butt;stroke-linejoin:round;stroke-opacity:1"
           width="100%"
           height="100%" />
        <use
           id="use13284"
           y="158.40417"
           xlink:href="#mf32ec6cf01"
           x="160.52727"
           style="fill:#00bfff;fill-opacity:1;stroke:#000000;stroke-linecap:butt;stroke-linejoin:round;stroke-opacity:1"
           width="100%"
           height="100%" />
        <use
           id="use13286"
           y="157.75948"
           xlink:href="#mf32ec6cf01"
           x="190.96364"
           style="fill:#00bfff;fill-opacity:1;stroke:#000000;stroke-linecap:butt;stroke-linejoin:round;stroke-opacity:1"
           width="100%"
           height="100%" />
        <use
           id="use13288"
           y="152.65813"
           xlink:href="#mf32ec6cf01"
           x="221.39999"
           style="fill:#00bfff;fill-opacity:1;stroke:#000000;stroke-linecap:butt;stroke-linejoin:round;stroke-opacity:1"
           width="100%"
           height="100%" />
        <use
           id="use13290"
           y="149.82924"
           xlink:href="#mf32ec6cf01"
           x="251.83636"
           style="fill:#00bfff;fill-opacity:1;stroke:#000000;stroke-linecap:butt;stroke-linejoin:round;stroke-opacity:1"
           width="100%"
           height="100%" />
        <use
           id="use13292"
           y="141.80202"
           xlink:href="#mf32ec6cf01"
           x="282.27274"
           style="fill:#00bfff;fill-opacity:1;stroke:#000000;stroke-linecap:butt;stroke-linejoin:round;stroke-opacity:1"
           width="100%"
           height="100%" />
        <use
           id="use13294"
           y="139.23749"
           xlink:href="#mf32ec6cf01"
           x="312.70908"
           style="fill:#00bfff;fill-opacity:1;stroke:#000000;stroke-linecap:butt;stroke-linejoin:round;stroke-opacity:1"
           width="100%"
           height="100%" />
        <use
           id="use13296"
           y="136.97369"
           xlink:href="#mf32ec6cf01"
           x="343.14545"
           style="fill:#00bfff;fill-opacity:1;stroke:#000000;stroke-linecap:butt;stroke-linejoin:round;stroke-opacity:1"
           width="100%"
           height="100%" />
        <use
           id="use13298"
           y="128.9455"
           xlink:href="#mf32ec6cf01"
           x="373.58182"
           style="fill:#00bfff;fill-opacity:1;stroke:#000000;stroke-linecap:butt;stroke-linejoin:round;stroke-opacity:1"
           width="100%"
           height="100%" />
      </g>
    </g>
    <g
       id="line2d_2-4"
       style="stroke:#000000;stroke-width:2.87999988;stroke-linecap:butt;stroke-linejoin:round;stroke-miterlimit:4;stroke-dasharray:none;stroke-opacity:1"
       transform="matrix(1.0416667,0,0,1.0416667,83.258361,376.35731)" />
    <g
       id="line2d_14-3"
       style="fill:#000000;fill-opacity:1;stroke:#000000;stroke-width:2.87999988;stroke-linecap:butt;stroke-linejoin:round;stroke-miterlimit:4;stroke-dasharray:none;stroke-opacity:1"
       transform="matrix(1.0416667,0,0,1.0416667,83.258361,376.35731)" />
    <g
       id="line2d_16-3"
       style="stroke-linecap:butt;stroke-linejoin:round"
       transform="matrix(1.0416667,0,0,1.0416667,83.258361,376.35731)" />
    <g
       id="line2d_18-0"
       style="stroke:#ff0000;stroke-linecap:butt;stroke-linejoin:round;stroke-opacity:1"
       transform="matrix(1.0416667,0,0,1.0416667,83.258361,376.35731)" />
    <g
       id="line2d_20-2"
       style="stroke:#ff0000;stroke-linecap:butt;stroke-linejoin:round;stroke-opacity:1"
       transform="matrix(1.0416667,0,0,1.0416667,83.258361,376.35731)" />
    <g
       id="line2d_22-8"
       style="stroke-linecap:butt;stroke-linejoin:round"
       transform="matrix(1.0416667,0,0,1.0416667,83.258361,376.35731)" />
    <g
       id="line2d_24-3"
       style="stroke-linecap:butt;stroke-linejoin:round"
       transform="matrix(1.0416667,0,0,1.0416667,83.258361,376.35731)" />
    <g
       id="text_13-1"
       style="stroke-linecap:butt;stroke-linejoin:round"
       transform="matrix(1.0416667,0,0,1.0416667,101.25836,66.35731)">
      <!-- 1.0 -->
      <g
         id="g6383"
         transform="matrix(0.1,0,0,-0.1,33.1,38.138906)"
         style="fill:#262626;stroke-linecap:butt;stroke-linejoin:round">
        <text
           xml:space="preserve"
           style="font-style:normal;font-weight:normal;font-size:144px;line-height:125%;font-family:sans-serif;letter-spacing:0px;word-spacing:0px;fill:#000000;fill-opacity:1;stroke:none;stroke-width:1px;stroke-linecap:butt;stroke-linejoin:miter;stroke-opacity:1"
           x="-303.39456"
           y="19.057556"
           id="text14874"
           sodipodi:linespacing="125%"
           transform="scale(1,-1)"><tspan
             sodipodi:role="line"
             id="tspan14876"
             style="font-style:normal;font-variant:normal;font-weight:normal;font-stretch:normal;font-size:192px;line-height:125%;font-family:Arial;-inkscape-font-specification:'Arial, Normal';text-align:start;writing-mode:lr-tb;text-anchor:start;stroke-linecap:butt;stroke-linejoin:round"
             x="-303.39456"
             y="19.057556">1.0</tspan></text>
      </g>
    </g>
    <g
       id="patch_3-1"
       style="stroke-linecap:butt;stroke-linejoin:round"
       transform="matrix(1.0416667,0,0,1.0416667,61.258361,66.35731)">
      <path
         id="path6539"
         style="fill:none;stroke-linecap:butt;stroke-linejoin:round"
         d="M 54,252 54,34.56"
         inkscape:connector-curvature="0" />
    </g>
    <g
       transform="matrix(1.0416667,0,0,1.0416667,101.25836,110.35731)"
       style="stroke-linecap:butt;stroke-linejoin:round"
       id="g14890">
      <!-- 1.0 -->
      <g
         style="fill:#262626;stroke-linecap:butt;stroke-linejoin:round"
         transform="matrix(0.1,0,0,-0.1,33.1,38.138906)"
         id="g14892">
        <text
           transform="scale(1,-1)"
           sodipodi:linespacing="125%"
           id="text14894"
           y="19.057556"
           x="-303.39456"
           style="font-style:normal;font-weight:normal;font-size:144px;line-height:125%;font-family:sans-serif;letter-spacing:0px;word-spacing:0px;fill:#000000;fill-opacity:1;stroke:none;stroke-width:1px;stroke-linecap:butt;stroke-linejoin:miter;stroke-opacity:1"
           xml:space="preserve"><tspan
             sodipodi:role="line"
             id="tspan14922"
             style="font-style:normal;font-variant:normal;font-weight:normal;font-stretch:normal;font-size:192px;line-height:125%;font-family:Arial;-inkscape-font-specification:'Arial, Normal';text-align:start;writing-mode:lr-tb;text-anchor:start;stroke-linecap:butt;stroke-linejoin:round"
             x="-303.39456"
             y="19.057556">0.8</tspan></text>
      </g>
    </g>
    <g
       id="g14898"
       style="stroke-linecap:butt;stroke-linejoin:round"
       transform="matrix(1.0416667,0,0,1.0416667,101.25836,156.35731)">
      <!-- 1.0 -->
      <g
         id="g14900"
         transform="matrix(0.1,0,0,-0.1,33.1,38.138906)"
         style="fill:#262626;stroke-linecap:butt;stroke-linejoin:round">
        <text
           xml:space="preserve"
           style="font-style:normal;font-weight:normal;font-size:144px;line-height:125%;font-family:sans-serif;letter-spacing:0px;word-spacing:0px;fill:#000000;fill-opacity:1;stroke:none;stroke-width:1px;stroke-linecap:butt;stroke-linejoin:miter;stroke-opacity:1"
           x="-303.39456"
           y="19.057556"
           id="text14902"
           sodipodi:linespacing="125%"
           transform="scale(1,-1)"><tspan
             sodipodi:role="line"
             id="tspan14904"
             style="font-style:normal;font-variant:normal;font-weight:normal;font-stretch:normal;font-size:192px;line-height:125%;font-family:Arial;-inkscape-font-specification:'Arial, Normal';text-align:start;writing-mode:lr-tb;text-anchor:start;stroke-linecap:butt;stroke-linejoin:round"
             x="-303.39456"
             y="19.057556">0.6</tspan></text>
      </g>
    </g>
    <g
       transform="matrix(1.0416667,0,0,1.0416667,101.25836,202.35731)"
       style="stroke-linecap:butt;stroke-linejoin:round"
       id="g14906">
      <!-- 1.0 -->
      <g
         style="fill:#262626;stroke-linecap:butt;stroke-linejoin:round"
         transform="matrix(0.1,0,0,-0.1,33.1,38.138906)"
         id="g14908">
        <text
           transform="scale(1,-1)"
           sodipodi:linespacing="125%"
           id="text14910"
           y="19.057556"
           x="-303.39456"
           style="font-style:normal;font-weight:normal;font-size:144px;line-height:125%;font-family:sans-serif;letter-spacing:0px;word-spacing:0px;fill:#000000;fill-opacity:1;stroke:none;stroke-width:1px;stroke-linecap:butt;stroke-linejoin:miter;stroke-opacity:1"
           xml:space="preserve"><tspan
             y="19.057556"
             x="-303.39456"
             style="font-style:normal;font-variant:normal;font-weight:normal;font-stretch:normal;font-size:192px;line-height:125%;font-family:Arial;-inkscape-font-specification:'Arial, Normal';text-align:start;writing-mode:lr-tb;text-anchor:start;stroke-linecap:butt;stroke-linejoin:round"
             id="tspan14912"
             sodipodi:role="line">0.4</tspan></text>
      </g>
    </g>
    <text
       xml:space="preserve"
       style="font-style:normal;font-weight:normal;font-size:15.00000095px;line-height:125%;font-family:sans-serif;letter-spacing:0px;word-spacing:0px;fill:#000000;fill-opacity:1;stroke:none;stroke-width:1px;stroke-linecap:butt;stroke-linejoin:miter;stroke-opacity:1"
       x="104.13392"
       y="288.0705"
       id="text14918"
       sodipodi:linespacing="125%"><tspan
         sodipodi:role="line"
         id="tspan14920"
         style="font-style:normal;font-variant:normal;font-weight:normal;font-stretch:normal;font-size:20px;line-height:125%;font-family:Arial;-inkscape-font-specification:'Arial, Normal';text-align:start;writing-mode:lr-tb;text-anchor:start;stroke-linecap:butt;stroke-linejoin:round"
         x="104.13392"
         y="288.0705">0.2</tspan></text>
    <text
       sodipodi:linespacing="125%"
       id="text14924"
       y="350.21332"
       x="204.70535"
       style="font-style:normal;font-weight:normal;font-size:15.00000095px;line-height:125%;font-family:sans-serif;letter-spacing:0px;word-spacing:0px;fill:#000000;fill-opacity:1;stroke:none;stroke-width:1px;stroke-linecap:butt;stroke-linejoin:miter;stroke-opacity:1"
       xml:space="preserve"><tspan
         y="350.21332"
         x="204.70535"
         style="font-style:normal;font-variant:normal;font-weight:normal;font-stretch:normal;font-size:20px;line-height:125%;font-family:Arial;-inkscape-font-specification:'Arial, Normal';text-align:start;writing-mode:lr-tb;text-anchor:start;stroke-linecap:butt;stroke-linejoin:round"
         id="tspan14926"
         sodipodi:role="line">0.2</tspan></text>
    <text
       xml:space="preserve"
       style="font-style:normal;font-weight:normal;font-size:15.00000095px;line-height:125%;font-family:sans-serif;letter-spacing:0px;word-spacing:0px;fill:#000000;fill-opacity:1;stroke:none;stroke-width:1px;stroke-linecap:butt;stroke-linejoin:miter;stroke-opacity:1"
       x="266.70535"
       y="350.21332"
       id="text15127"
       sodipodi:linespacing="125%"><tspan
         sodipodi:role="line"
         id="tspan15129"
         style="font-style:normal;font-variant:normal;font-weight:normal;font-stretch:normal;font-size:20px;line-height:125%;font-family:Arial;-inkscape-font-specification:'Arial, Normal';text-align:start;writing-mode:lr-tb;text-anchor:start;stroke-linecap:butt;stroke-linejoin:round"
         x="266.70535"
         y="350.21332">0.4</tspan></text>
    <text
       sodipodi:linespacing="125%"
       id="text15131"
       y="350.21332"
       x="330.70535"
       style="font-style:normal;font-weight:normal;font-size:15.00000095px;line-height:125%;font-family:sans-serif;letter-spacing:0px;word-spacing:0px;fill:#000000;fill-opacity:1;stroke:none;stroke-width:1px;stroke-linecap:butt;stroke-linejoin:miter;stroke-opacity:1"
       xml:space="preserve"><tspan
         y="350.21332"
         x="330.70535"
         style="font-style:normal;font-variant:normal;font-weight:normal;font-stretch:normal;font-size:20px;line-height:125%;font-family:Arial;-inkscape-font-specification:'Arial, Normal';text-align:start;writing-mode:lr-tb;text-anchor:start;stroke-linecap:butt;stroke-linejoin:round"
         id="tspan15133"
         sodipodi:role="line">0.6</tspan></text>
    <text
       xml:space="preserve"
       style="font-style:normal;font-weight:normal;font-size:15.00000095px;line-height:125%;font-family:sans-serif;letter-spacing:0px;word-spacing:0px;fill:#000000;fill-opacity:1;stroke:none;stroke-width:1px;stroke-linecap:butt;stroke-linejoin:miter;stroke-opacity:1"
       x="394.70535"
       y="350.21332"
       id="text15135"
       sodipodi:linespacing="125%"><tspan
         sodipodi:role="line"
         id="tspan15137"
         style="font-style:normal;font-variant:normal;font-weight:normal;font-stretch:normal;font-size:20px;line-height:125%;font-family:Arial;-inkscape-font-specification:'Arial, Normal';text-align:start;writing-mode:lr-tb;text-anchor:start;stroke-linecap:butt;stroke-linejoin:round"
         x="394.70535"
         y="350.21332">0.8</tspan></text>
    <text
       sodipodi:linespacing="125%"
       id="text15158"
       y="350.21332"
       x="458.70535"
       style="font-style:normal;font-weight:normal;font-size:15.00000095px;line-height:125%;font-family:sans-serif;letter-spacing:0px;word-spacing:0px;fill:#000000;fill-opacity:1;stroke:none;stroke-width:1px;stroke-linecap:butt;stroke-linejoin:miter;stroke-opacity:1"
       xml:space="preserve"><tspan
         y="350.21332"
         x="458.70535"
         style="font-style:normal;font-variant:normal;font-weight:normal;font-stretch:normal;font-size:20px;line-height:125%;font-family:Arial;-inkscape-font-specification:'Arial, Normal';text-align:start;writing-mode:lr-tb;text-anchor:start;stroke-linecap:butt;stroke-linejoin:round"
         id="tspan15160"
         sodipodi:role="line">1.0</tspan></text>
    <text
       sodipodi:linespacing="125%"
       id="text15206"
       y="334.0705"
       x="120.13392"
       style="font-style:normal;font-weight:normal;font-size:15.00000095px;line-height:125%;font-family:sans-serif;letter-spacing:0px;word-spacing:0px;fill:#000000;fill-opacity:1;stroke:none;stroke-width:1px;stroke-linecap:butt;stroke-linejoin:miter;stroke-opacity:1"
       xml:space="preserve"><tspan
         y="334.0705"
         x="120.13392"
         style="font-style:normal;font-variant:normal;font-weight:normal;font-stretch:normal;font-size:20px;line-height:125%;font-family:Arial;-inkscape-font-specification:'Arial, Normal';text-align:start;writing-mode:lr-tb;text-anchor:start;stroke-linecap:butt;stroke-linejoin:round"
         id="tspan15208"
         sodipodi:role="line">0</tspan></text>
  </g>
</svg>
